<svg xmlns="http://www.w3.org/2000/svg" width="89" height="80" viewBox="0 0 89 80">
  <g id="Group_105" data-name="Group 105" transform="translate(-237 -288)">
    <g id="Rectangle_202" data-name="Rectangle 202" transform="translate(237 288)" fill="#fff" stroke="#053259" stroke-width="2">
      <rect width="89" height="80" rx="16" stroke="none"/>
      <rect x="1" y="1" width="87" height="78" rx="15" fill="none"/>
    </g>
    <text id="Hadamard_Gate" data-name="Hadamard 
Gate" transform="translate(282 337)" fill="#053259" font-size="12" font-family="SegoeUI-Bold, Segoe UI" font-weight="700"><tspan x="-31.228" y="0">Hadamard </tspan><tspan x="-13.052" y="16">Gate</tspan></text>
    <text id="H" transform="translate(272 322)" fill="#053259" font-size="30" font-family="Tahoma-Bold, Tahoma" font-weight="700"><tspan x="0" y="0">H</tspan></text>
  </g>
</svg>
