<svg xmlns="http://www.w3.org/2000/svg" width="63" height="56" viewBox="0 0 63 56">
  <g id="Rectangle_207" data-name="Rectangle 207" fill="#fff" stroke="#053259" stroke-width="2">
    <rect width="63" height="56" stroke="none"/>
    <rect x="1" y="1" width="61" height="54" fill="none"/>
  </g>
</svg>
