<svg xmlns="http://www.w3.org/2000/svg" width="94.805" height="97.181" viewBox="0 0 94.805 97.181">
  <g id="Avatar_9" data-name="Avatar 9" transform="translate(-358 -125)">
    <path id="Path_172" data-name="Path 172" d="M441.817,150.251a10.264,10.264,0,0,1,2.887,14.13,10.259,10.259,0,0,1-.461,11.853,10.324,10.324,0,0,1-2.8,2.514,10.268,10.268,0,0,1-8.819,9.472,9.951,9.951,0,0,1-1.423.1,10.221,10.221,0,0,1-6.48-2.3,1.887,1.887,0,0,1-.04.2v10.085c0,.234,0,.468-.01.7a25,25,0,0,1-.389,3.764,26.427,26.427,0,0,1-8.675,15.182l-5.521,4.818-.052.045a1.879,1.879,0,0,1-1.233.461,1.833,1.833,0,0,1-.306-.025,1.588,1.588,0,0,1-.324-.085,1.874,1.874,0,0,1-.991-.825,55.381,55.381,0,0,1-7.439-29.417,6,6,0,0,1-5.085-3.461,10.038,10.038,0,0,1-1.355-.453,10.319,10.319,0,0,1-3.418-2.312,10.3,10.3,0,0,1-6.223-5.7A10.273,10.273,0,0,1,375.8,164.91a10.291,10.291,0,0,1-.132-7.561,6.825,6.825,0,0,1,3.1-10.366A10.267,10.267,0,0,1,390.3,133.024a10.263,10.263,0,0,1,13.63-3.864c.028.013.054.027.081.042l.029.016c.013-.017.025-.032.04-.05a10.264,10.264,0,0,1,16.225-.374,10.275,10.275,0,0,1,13.341,9.636,10.261,10.261,0,0,1,8.171,11.821Zm-16.988,15.391v7.123h.528a3.907,3.907,0,0,0,.391-7.8.942.942,0,0,0,.045-.292.963.963,0,0,0-.964-.961h-2.892v-7.14a3.1,3.1,0,0,0-3.092-3.094H400.089A3.1,3.1,0,0,0,397,156.577v2.788l-1.442,1.44-.917.917a2.853,2.853,0,0,0-.528.732c-.02.04-.04.08-.057.12a2.866,2.866,0,0,0-.234,1.472,2.712,2.712,0,0,0,.08.441l.212.79.723,2.693a2.866,2.866,0,0,0,1.746,1.933,2.541,2.541,0,0,0,.277.09l.142.037v14.925a3.1,3.1,0,0,0,1.654,2.738,3.051,3.051,0,0,0,1.216.346c.075.007.147.01.222.01h18.757a3.1,3.1,0,0,0,3.054-2.608,3.16,3.16,0,0,0,.037-.486V165.642h2.892Zm-15.551,50.721,0,.01.012.023.034.066,3.821-3.333a22.706,22.706,0,0,0,7.382-12.653,21.4,21.4,0,0,0,.4-3.567c0-.2.007-.4.007-.6v-4.9a19.55,19.55,0,0,1-3.453,1.8c-4.437,1.913-11.071,3.956-13.732,4.751-.271.082-.5.149-.68.2.027.765.08,1.5.154,2.2.608,5.679,2.72,9.694,5.959,15.851l.075.143v-.027Zm-18.213-47.5a3.421,3.421,0,0,0,2.626,3.321v-6.642A3.419,3.419,0,0,0,391.066,168.859Zm4.691-4.871a.938.938,0,0,1,.244-.9l.127-.127.869-.869v5.857a.927.927,0,0,1-.306-.473l-.112-.419Zm-16.564,38.679a.515.515,0,1,0,.755.7.534.534,0,0,0-.005-.747A.54.54,0,0,0,379.192,202.667Zm-.085,2.427a.559.559,0,0,1,.129-.264.539.539,0,0,1,.755-.057l-.045.05-.67.77A.5.5,0,0,1,379.107,205.094Zm-1.938,2.053a.553.553,0,0,0,.067.787l.715-.82A.561.561,0,0,0,377.169,207.147Zm-.085-5.817a.546.546,0,0,1,.792-.747.52.52,0,0,1-.035.74A.538.538,0,0,1,377.085,201.33Zm.7,2.155a.549.549,0,0,0,.01-.765.544.544,0,0,0-.767.772A.527.527,0,0,0,377.787,203.485Zm-.707,2.207a.538.538,0,0,1-.032-.772.557.557,0,0,1,.775-.025.546.546,0,0,1,.147.578.529.529,0,0,1-.112.194.543.543,0,0,1-.7.085A.581.581,0,0,1,377.08,205.692Zm-1.861-7.342a.532.532,0,0,0-.095.747.523.523,0,0,0,.745.052.544.544,0,0,0,.095-.747A.531.531,0,0,0,375.219,198.35Zm.521,2.185a.545.545,0,0,1-.815.723.528.528,0,0,1,.052-.757A.548.548,0,0,1,375.739,200.535Zm-.852-59.023a.515.515,0,0,0,.09.737.544.544,0,0,0,.752-.05.524.524,0,0,0-.09-.737A.531.531,0,0,0,374.887,141.512Zm.735,64.2a.546.546,0,0,1-.782-.017.562.562,0,0,1-.015-.792.473.473,0,0,1,.1-.075.551.551,0,0,1,.561,0,.477.477,0,0,1,.122.092A.571.571,0,0,1,375.622,205.714Zm-.8-2.25a.557.557,0,0,0,.782.017.538.538,0,0,0,.01-.765.545.545,0,1,0-.792.747Zm-.157-64.112.82.715a.529.529,0,0,1-.75.05A.543.543,0,0,1,374.666,139.352Zm.239,67.817a.587.587,0,0,0,.86.795.568.568,0,0,0-.057-.795A.576.576,0,0,0,374.9,207.169Zm-1.6-10.423a.519.519,0,0,1,.135-.732.54.54,0,0,1,.747.095.545.545,0,0,1-.882.638Zm-.224-52.874a.535.535,0,0,0,.154.74.52.52,0,0,0,.733-.107.537.537,0,0,0-.142-.733A.524.524,0,0,0,373.081,143.871Zm-.008,54.267a.524.524,0,0,1,.742.092l0,0a.529.529,0,0,1-.095.745.532.532,0,1,1-.65-.84Zm-.344-56.4a.545.545,0,0,0,.867.66.544.544,0,0,0-.112-.752A.532.532,0,0,0,372.73,141.736Zm0,59.342a.544.544,0,1,1,.84-.693.556.556,0,0,1-.072.772A.538.538,0,0,1,372.727,201.078Zm.067,1.353a.584.584,0,0,0-.169.1.544.544,0,0,0-.03.782.557.557,0,0,0,.787.065.523.523,0,0,0,.157-.259.566.566,0,0,0-.127-.526A.574.574,0,0,0,372.794,202.431Zm-.249-62.119a.532.532,0,0,1-.07-.765.548.548,0,0,1,.775-.077.542.542,0,0,1,.07.765A.561.561,0,0,1,372.546,140.311Zm.792,64.519a.564.564,0,0,0-.775-.04.5.5,0,0,0-.047.05.589.589,0,0,0,.855.8.56.56,0,0,0-.015-.792Zm-1.016-67.52.822.717a.549.549,0,0,1-.775.077A.566.566,0,0,1,372.321,137.309Zm.237,56.4a.523.523,0,0,0-.725-.152.541.541,0,0,0-.2.732.545.545,0,0,0,.922-.58Zm-.917-46.636a.514.514,0,1,1,.538-.874.514.514,0,1,1-.538.874Zm-.319,48.577a.538.538,0,0,0-.157.747.527.527,0,0,0,.745.14.544.544,0,0,0,.157-.747A.538.538,0,0,0,371.322,195.65Zm-.219-50.672a.524.524,0,0,1-.157-.742.545.545,0,0,1,.755-.137.532.532,0,0,1,.152.74A.551.551,0,0,1,371.1,144.977Zm-.2,52.827a.538.538,0,0,0-.117.762.545.545,0,1,0,.884-.638A.56.56,0,0,0,370.9,197.8Zm-.219-54.967a.552.552,0,0,1-.135-.77.539.539,0,0,1,.765-.13.493.493,0,0,1,.142.154.571.571,0,0,1-.02.608.536.536,0,0,1-.707.164.392.392,0,0,1-.045-.027Zm-.09,57.172a.418.418,0,0,0-.082.08.572.572,0,0,0-.01.71.563.563,0,0,0,.775.115c.005,0,.008-.005.013-.008a.568.568,0,0,0-.695-.9Zm-.259,3.049a.546.546,0,1,1,.84-.695.578.578,0,0,1-.05.8A.557.557,0,0,1,370.333,203.059Zm-.072-63.206a.544.544,0,1,0,.775-.122A.556.556,0,0,0,370.261,139.853Zm.844,51.345a.536.536,0,0,1-.237.712.52.52,0,0,1-.72-.194.528.528,0,0,1,.234-.713A.534.534,0,0,1,371.105,191.2Zm-.989-52.822a.581.581,0,0,0,.8-.1.564.564,0,0,0-.047-.795.57.57,0,0,0-.8.107A.552.552,0,0,0,370.116,138.376Zm.087,11.256a.515.515,0,0,1-.237-.707.536.536,0,0,1,.73-.194.524.524,0,0,1,.232.7A.544.544,0,0,1,370.2,149.631Zm.07,44.349a.533.533,0,0,0,.2-.73.551.551,0,0,0-.742-.184.525.525,0,0,0-.2.733A.539.539,0,0,0,370.273,193.98Zm-.944-47.13a.53.53,0,0,1,.737-.189.549.549,0,0,1,.209.73,0,0,0,0,0,0,0,.533.533,0,0,1-.727.194.545.545,0,0,1-.217-.735Zm-.147,48.33a.559.559,0,0,0-.179.762.551.551,0,0,0,.762.172.545.545,0,0,0,.159-.752A.537.537,0,0,0,369.182,195.181Zm.625-6.577a.545.545,0,0,1-.989.456.515.515,0,0,1,.274-.693A.544.544,0,0,1,369.808,188.6Zm-1.146-37.013a.539.539,0,0,0,.3.7.527.527,0,0,0,.7-.252.543.543,0,0,0-.289-.69A.517.517,0,0,0,368.661,151.592ZM368.5,197.7a.519.519,0,0,1,.227-.346.558.558,0,0,1,.767.167.566.566,0,0,1-.139.777.509.509,0,0,1-.3.092.586.586,0,0,1-.555-.69Zm.3-52.989a.554.554,0,0,0-.055.466.523.523,0,0,0,.229.289.55.55,0,0,0,.578-.937.473.473,0,0,0-.219-.077A.542.542,0,0,0,368.8,144.716Zm-.306-1.425a.543.543,0,0,1-.137-.772.562.562,0,0,1,.775-.17.553.553,0,0,1,.132.772A.572.572,0,0,1,368.495,143.291Zm.3,48.039a.54.54,0,0,0,.244-.715v0a.531.531,0,0,0-.715-.234.546.546,0,0,0-.259.722A.534.534,0,0,0,368.794,191.33Zm.11-50.43a.557.557,0,0,1-.775.167.575.575,0,0,1-.112-.8.561.561,0,0,1,.787-.159A.576.576,0,0,1,368.9,140.9Zm-.282,8.431a.53.53,0,0,0-.722.239.536.536,0,0,0,.257.718.532.532,0,1,0,.466-.957Zm-.354,51.058a.557.557,0,0,1,.095-.792.578.578,0,0,1,.787.154.546.546,0,1,1-.882.638Zm.092-13.779a.538.538,0,0,0,.321-.673.521.521,0,0,0-.683-.289.536.536,0,0,0-.334.678A.519.519,0,0,0,368.36,186.609Zm-.481-31.594a.516.516,0,1,1,.356-.967.539.539,0,0,1,.331.673A.532.532,0,0,1,367.879,155.015Zm.491,37.663a.545.545,0,1,0-.959.518.542.542,0,0,0,.74.227A.557.557,0,0,0,368.37,192.678Zm-.929-44.469a.534.534,0,0,1-.222-.74.551.551,0,0,1,.745-.227.542.542,0,0,1,.217.737A.562.562,0,0,1,367.441,148.209Zm-.416,46.395a.543.543,0,0,0-.177.762.545.545,0,1,0,.939-.551A.569.569,0,0,0,367.025,194.6Zm.768-6.724a.545.545,0,0,1-.3.7.533.533,0,1,1-.409-.984A.541.541,0,0,1,367.792,187.879Zm-.416-4.036a.514.514,0,1,0-.3-.982.514.514,0,1,0,.3.982Zm-.737-31.475a.547.547,0,0,1,.715-.284.532.532,0,0,1,.294.7.55.55,0,0,1-.708.284A.524.524,0,0,1,366.639,152.369Zm1.007,5.1a.524.524,0,0,0-.366-.645.536.536,0,0,0-.678.334.517.517,0,0,0,.369.648A.548.548,0,0,0,367.645,157.469Zm-.812-11.392a.559.559,0,0,1-.2-.767.544.544,0,0,1,.755-.222.565.565,0,0,1,.189.762A.548.548,0,0,1,366.833,146.076Zm-.3,50.727a.587.587,0,0,0,.62.994.589.589,0,0,0-.62-.994Zm.448-6.9a.546.546,0,0,1-.259.725.553.553,0,0,1-.733-.269.534.534,0,0,1,.259-.725A.563.563,0,0,1,366.982,189.9Zm-.408-8.881a.523.523,0,0,0,.4-.623.544.544,0,0,0-.65-.374.513.513,0,0,0-.408.625A.531.531,0,0,0,366.574,181.021Zm-.3-20.363a.542.542,0,0,1-.428-.625.529.529,0,0,1,.653-.381.537.537,0,0,1,.411.623A.524.524,0,0,1,366.27,160.657Zm.277-10.615a.537.537,0,0,0-.723.279.556.556,0,0,0,.282.73.542.542,0,0,0,.712-.284A.559.559,0,0,0,366.547,150.042Zm.172,35.037a.531.531,0,0,1-.334.678.543.543,0,0,1-.7-.321.524.524,0,0,1,.336-.68A.554.554,0,0,1,366.719,185.079Zm-.4-41.21a.586.586,0,0,0,.613-1,.586.586,0,0,0-.613,1Zm-.747,11.383v0a.53.53,0,0,1,.688-.329.548.548,0,0,1,.346.675.53.53,0,0,1-.675.334A.543.543,0,0,1,365.567,155.252Zm.832,22.309a.525.525,0,0,0-.613-.419.538.538,0,0,0-.461.6.52.52,0,0,0,.623.416A.544.544,0,0,0,366.4,177.56Zm-.653-14.016a.532.532,0,0,1-.461-.6.52.52,0,0,1,.615-.423.542.542,0,0,1,.461.6A.533.533,0,0,1,365.747,163.545ZM366.257,192h0a.551.551,0,0,0-.733-.271.568.568,0,0,0-.244.757.552.552,0,0,0,.747.262A.558.558,0,0,0,366.257,192Zm-.237-17.317a.54.54,0,0,1-.491.568.515.515,0,1,1-.1-1.024A.539.539,0,0,1,366.021,174.686ZM365.993,166a.545.545,0,0,0-1.084-.1.52.52,0,0,0,.491.563A.538.538,0,0,0,365.993,166Zm-.645-17.045a.569.569,0,0,1,.5-1.021.569.569,0,0,1-.5,1.021Zm.1,33.914a.551.551,0,0,0,.386-.655.535.535,0,0,0-.658-.371.546.546,0,0,0-.394.658A.523.523,0,0,0,365.448,182.869Zm.369-11.074a.525.525,0,0,1-.518.533.536.536,0,0,1-.571-.5.518.518,0,0,1,.521-.533A.547.547,0,0,1,365.816,171.8Zm-1.1-2.93a.527.527,0,0,0,.533.531.536.536,0,0,0,.556-.5.52.52,0,0,0-.518-.531A.54.54,0,0,0,364.715,168.866Zm1.061,18.179a.556.556,0,0,1-.309.707.539.539,0,0,1-.707-.319.552.552,0,0,1,.321-.71A.539.539,0,0,1,365.777,187.045Zm-.416-29.227a.533.533,0,1,0-.266,1.031.541.541,0,0,0,.66-.376A.549.549,0,0,0,365.361,157.817Zm-.68,36.856a.545.545,0,1,1,.957-.518.573.573,0,0,1-.2.775A.557.557,0,0,1,364.681,194.673Zm.653-41.739a.55.55,0,0,0-.381,1.031.55.55,0,0,0,.381-1.031Zm.1-6.41a.581.581,0,0,1-.757.262.553.553,0,0,1-.2-.772.571.571,0,0,1,.762-.259A.562.562,0,0,1,365.436,146.524Zm-.718,33.4a.531.531,0,1,0-.212-1.041.531.531,0,1,0,.212,1.041Zm-.274-18.106a.526.526,0,0,1-.428-.625.54.54,0,0,1,.643-.416.534.534,0,0,1,.426.625A.548.548,0,0,1,364.444,161.813Zm.486,27.269a.563.563,0,0,0-.723-.314.569.569,0,0,0,.439,1.049A.562.562,0,0,0,364.93,189.083Zm-.157-4.975a.555.555,0,0,1-.359.688.55.55,0,0,1-.321-1.051A.55.55,0,0,1,364.773,184.107Zm-1.009-32.915a.543.543,0,0,0,.287.73.519.519,0,0,0,.294.025.6.6,0,0,0,.428-.344.557.557,0,0,0,0-.451v0a.545.545,0,0,0-.279-.274A.559.559,0,0,0,363.764,151.193Zm-.142,5.077a.55.55,0,0,1,.685-.369.542.542,0,0,1,.359.68.561.561,0,0,1-.685.369A.53.53,0,0,1,363.622,156.27Zm.56,20.665a.534.534,0,0,0,.459-.6.553.553,0,0,0-.613-.454.527.527,0,0,0-.466.6A.544.544,0,0,0,364.182,176.935Zm.154-3.583a.548.548,0,0,1-.506.566.527.527,0,0,1-.58-.491.546.546,0,0,1,.516-.568A.532.532,0,0,1,364.337,173.353Zm-.583-5.5a.535.535,0,0,0,.571-.5.552.552,0,0,0-.516-.566.527.527,0,0,0-.571.5A.541.541,0,0,0,363.754,167.85Zm.483,2.5a.546.546,0,0,1-.543.533.532.532,0,1,1,0-1.064A.542.542,0,0,1,364.237,170.351Zm-.72-6.126a.548.548,0,0,0,.486.6.525.525,0,0,0,.593-.458v0a.524.524,0,0,0-.458-.593A.548.548,0,0,0,363.517,164.225Zm.466-14.728a.559.559,0,0,1-.727.316.572.572,0,0,1-.267-.762.556.556,0,0,1,.737-.311A.579.579,0,0,1,363.983,149.5Zm-.426,32.279a.543.543,0,0,0,.393-.66.561.561,0,0,0-.658-.409.536.536,0,0,0-.4.66A.554.554,0,0,0,363.557,181.776Zm-.747-22.436a.544.544,0,1,1,1.061.242.537.537,0,0,1-.64.419A.556.556,0,0,1,362.81,159.34Zm.65,27.463a.547.547,0,0,0,.321-.71.571.571,0,0,0-.7-.359.541.541,0,0,0-.326.713A.56.56,0,0,0,363.46,186.8Zm-.292,4.85a.553.553,0,0,1,.244-.757.579.579,0,0,1,.745.3.546.546,0,1,1-.989.456Zm.207-37.728a.353.353,0,0,0-.055-.025.548.548,0,0,0-.7.366.564.564,0,0,0,.3.693.236.236,0,0,0,.052.022.549.549,0,0,0,.685-.371A.568.568,0,0,0,363.375,153.926Zm-.042,24.153a.558.558,0,0,1-.443.633.537.537,0,0,1-.63-.454.554.554,0,0,1,.456-.633A.538.538,0,0,1,363.333,178.079Zm-1.116-15.623a.544.544,0,1,0,1.074.172.555.555,0,0,0-.453-.63A.538.538,0,0,0,362.217,162.456Zm.71,12.546a.552.552,0,0,1-.488.6.55.55,0,0,1-.11-1.094A.553.553,0,0,1,362.927,175Zm-1.113-9.4a.538.538,0,0,0,.488.6.558.558,0,0,0,.6-.5.545.545,0,1,0-1.086-.1Zm.045,22.937a.573.573,0,0,1,.309-.745.558.558,0,0,1,.707.356.572.572,0,0,1-.3.74A.555.555,0,0,1,361.858,188.542Zm.6-4.818a.571.571,0,0,0,.376-.693.554.554,0,0,0-.668-.406.562.562,0,0,0-.384.693A.546.546,0,0,0,362.461,183.724Zm.249-11.819a.541.541,0,0,1-.518.568.55.55,0,0,1-.571-.528.534.534,0,0,1,.518-.571A.566.566,0,0,1,362.71,171.905Zm-1.1-3.134a.543.543,0,0,0,.533.568.552.552,0,0,0,.555-.536.541.541,0,0,0-.516-.566A.557.557,0,0,0,361.606,168.771Zm1.134-16.213a.573.573,0,0,1-.715.361.588.588,0,0,1,.409-1.1A.572.572,0,0,1,362.74,152.558Zm-.628,4.434a.561.561,0,0,0-.416.414.579.579,0,0,0,.095.5.518.518,0,0,0,.289.192.569.569,0,0,0,.284-1.1A.478.478,0,0,0,362.112,156.993Zm-.01,22.917a.563.563,0,0,1-.421.665.568.568,0,0,1-.224-1.114A.56.56,0,0,1,362.1,179.91Zm-.3,5.115a.585.585,0,0,0-.2-.292.529.529,0,0,0-.493-.11.588.588,0,0,0,.344,1.121.545.545,0,0,0,.356-.4A.6.6,0,0,0,361.806,185.024Zm-.84-24.427a.5.5,0,0,1,.04-.122.547.547,0,0,1,.608-.331.555.555,0,0,1,.421.66.569.569,0,0,1-.648.453.541.541,0,0,1-.431-.6.022.022,0,0,0,0-.013c0-.009,0-.017,0-.025S360.965,160.606,360.966,160.6Zm.027-4.5a.581.581,0,0,0,.7-.4.563.563,0,0,0-.349-.715.569.569,0,0,0-.7.4A.55.55,0,0,0,360.993,156.1Zm.571,20.653a.555.555,0,0,1-.456.635.563.563,0,0,1-.625-.488.544.544,0,0,1,.461-.635A.571.571,0,0,1,361.564,176.751Zm-1.129-12.92a.567.567,0,0,0,.481.635.569.569,0,0,0,.145-1.126A.565.565,0,0,0,360.435,163.831Zm.8,9.733a.57.57,0,0,1-.5.605.546.546,0,0,1-.583-.531.565.565,0,0,1,.513-.605A.551.551,0,0,1,361.238,173.565Zm-1.1-6.475a.546.546,0,1,0,1.089.07.57.57,0,0,0-.516-.6A.546.546,0,0,0,360.137,167.09Zm.994,3.269a.564.564,0,0,1-.543.57.568.568,0,0,1,0-1.136A.557.557,0,0,1,361.131,170.358Zm-.937-11.014a.559.559,0,0,0,.65-.451.574.574,0,0,0-.4-.693.562.562,0,0,0-.668.448A.577.577,0,0,0,360.194,159.345Zm.735,22.488a.593.593,0,0,1-.045.416.534.534,0,0,1-.341.279.571.571,0,0,1-.673-.443.553.553,0,0,1,.391-.695.529.529,0,0,1,.433.1A.624.624,0,0,1,360.929,181.833Zm-.745-2.818a.636.636,0,0,0,.087-.421.579.579,0,0,0-.219-.379.522.522,0,0,0-.406-.109.573.573,0,0,0-.448.67.555.555,0,0,0,.635.488A.514.514,0,0,0,360.184,179.015Zm.04-16.878a.545.545,0,1,1-1.074-.174.555.555,0,0,1,.625-.491A.574.574,0,0,1,360.224,162.137Zm-.872,13.817a.536.536,0,0,0,.384-.239.607.607,0,0,0,.1-.4.625.625,0,0,0-.167-.364.543.543,0,0,0-.433-.164.587.587,0,0,0,.117,1.166Zm.453-10.541a.574.574,0,0,1-.6.531.558.558,0,0,1-.483-.633.546.546,0,1,1,1.084.1Zm-.77,3.869a.574.574,0,0,0,.556-.571.557.557,0,0,0-.516-.6.573.573,0,0,0-.573.568A.563.563,0,0,0,359.035,169.282Zm.506,3.037s0,0,0,0a.542.542,0,0,1-.451.3.569.569,0,0,1-.573-.566.553.553,0,0,1,.515-.605.567.567,0,0,1,.5.314.573.573,0,0,1,.067.252A.618.618,0,0,1,359.541,172.319Z" transform="translate(-0.393 0)" fill="#1c1c1c" fill-rule="evenodd"/>
    <path id="Path_173" data-name="Path 173" d="M447.673,424.205a11.964,11.964,0,0,1,3.209-.436H452.8v19.94H438.911v-7.97a11.927,11.927,0,0,1,3.8-8.752c-2.88-.578-5.777-1.081-8.667-1.51-.533-.077-1.069-.154-1.615-.232l-1.689-.232c-6.888,7.108-15.71,15.391-21.044,17.285l5.521-4.818A26.427,26.427,0,0,0,423.9,422.3a24.992,24.992,0,0,0,.389-3.764c.007-.232.01-.466.01-.7V407.75a1.823,1.823,0,0,0,.04-.2,10.222,10.222,0,0,0,6.48,2.3,9.939,9.939,0,0,0,1.423-.1L431.7,411.5l7.187,2.025,1.928.543s-2.823,3.269-6.881,7.6l.668.1C438.966,422.414,443.343,423.231,447.673,424.205Zm-47.757-2.073a55.337,55.337,0,0,0,6.878,19.738,1.875,1.875,0,0,0,.991.825,3.185,3.185,0,0,1-.493-.025l-19.349-15.658h0c-.52.154-1.041.309-1.561.471-.583.182-2.123.561-4.584,1.161s-5.845,1.425-6.537,1.674l-.031.008a.238.238,0,0,0-.033.009,10.787,10.787,0,0,0-3.764,7.992v5.381H358v-5.381c0-6.45,6.271-11.707,14.123-11.961a.589.589,0,0,0,.855.8.56.56,0,0,0-.015-.792l-.017-.018h1.587a.484.484,0,0,0-.1.075.562.562,0,0,0,.015.792.546.546,0,0,0,.782.017.571.571,0,0,0-.015-.792.477.477,0,0,0-.122-.092h.376c1.241-.331,3.089-.785,5.438-1.358l.542-.132c1.111-.272,2.193-.536,2.941-.727l-5.257-4.252L388.5,417.7l-4.861-8.241,9.546.052-.266-.974a10.062,10.062,0,0,0,1.355.453,6,6,0,0,0,5.085,3.46A55.23,55.23,0,0,0,399.915,422.133Zm-25.344,7.362a.561.561,0,0,0,.8,0,.568.568,0,0,0-.057-.795.576.576,0,0,0-.8,0A.558.558,0,0,0,374.572,429.494Zm2.2-.82a.552.552,0,0,0,.067.787l.715-.82A.56.56,0,0,0,376.777,428.675Zm-.01-1.4a.543.543,0,0,0,.7-.085.529.529,0,0,0,.112-.194.546.546,0,0,0-.147-.578.557.557,0,0,0-.775.025.538.538,0,0,0,.032.772A.619.619,0,0,0,376.767,427.279Zm1.948-.658a.5.5,0,0,0,.17.5l.67-.77.045-.05a.539.539,0,0,0-.755.057A.561.561,0,0,0,378.715,426.622Z" transform="translate(0 -221.528)" fill="#50bfe3" fill-rule="evenodd"/>
    <path id="Path_174" data-name="Path 174" d="M407.837,144.273c-.033,0-.067,0-.1-.006h0l-.05,0c.028.013.054.027.081.042l.029.016C407.81,144.3,407.822,144.29,407.837,144.273Zm-4.128,29.265,3.483.932a2.816,2.816,0,0,1,1.071.553,7.5,7.5,0,0,0-2.127-1.664s6.853.67,10.164-1.345a6.158,6.158,0,0,0,2.693-3.426H403.846a3.1,3.1,0,0,0-3.092,3.094v2.788l.192-.192A2.867,2.867,0,0,1,403.709,173.537Zm24.873,5.284h0a.963.963,0,0,1,.964.962.942.942,0,0,1-.045.292.964.964,0,0,1-.919.672h-3.966l.02.65a2.867,2.867,0,0,1-1.35,2.521l-3.067,1.9a2.824,2.824,0,0,1-1.064.394,2.925,2.925,0,0,1-.444.035,2.852,2.852,0,0,1-1.353-.339l-3.179-1.7a2.87,2.87,0,0,1-1.507-2.431l-.022-.755H410.7c.578,4.679,1.1,12.1,1.188,13.405.01.13.015.2.015.2a9.636,9.636,0,0,0,1.614,4.046,6.037,6.037,0,0,0,2.172,1.876,5.745,5.745,0,0,0,1.181.433,8.335,8.335,0,0,1,3.254,1.443,3.777,3.777,0,0,1,.72.732h-17a2.175,2.175,0,0,1-.222-.01,3.051,3.051,0,0,1-1.216-.346,3.1,3.1,0,0,1-1.654-2.738V185.134l3.341.9a2.864,2.864,0,0,0,2.763-.74l.618-.618,1.933-1.933a2.861,2.861,0,0,0,.74-2.763l-.179-.673-.154-.576-.6-2.237a2.847,2.847,0,0,0-.2-.531,8.973,8.973,0,0,1,1.183,2.424c.075.232.142.473.2.725a.818.818,0,0,1,.174-.017H412.6l-.015-.466-.015-.458a2.864,2.864,0,0,1,1.353-2.521l3.064-1.9a2.874,2.874,0,0,1,2.86-.09l3.179,1.7a2.876,2.876,0,0,1,1.507,2.431l.032,1.029h4.021Zm-9.372,5.361,3.064-1.9a.942.942,0,0,0,.443-.825l-.115-3.605a.941.941,0,0,0-.493-.8l-3.176-1.7a.935.935,0,0,0-.443-.109.947.947,0,0,0-.493.14l-3.064,1.9a.936.936,0,0,0-.444.825l.06,1.878.055,1.726a.937.937,0,0,0,.493.795l2.317,1.243.86.461A.94.94,0,0,0,419.21,184.182Zm17.177,19.143a10.267,10.267,0,0,0,8.819-9.472,10.32,10.32,0,0,0,2.8-2.514,42.148,42.148,0,0,1-4.967,15.767l-7.187-2.025Zm-30.889-19.4a.935.935,0,0,1-.9.242l-3.483-.932a.865.865,0,0,1-.356-.189v-5.857l1.552-1.555a.942.942,0,0,1,.663-.274.881.881,0,0,1,.242.032l3.483.934a.934.934,0,0,1,.663.66l.777,2.9.157.581a.936.936,0,0,1-.244.9l-2.2,2.2Zm1.487,31.539c-.075-.707-.127-1.44-.154-2.2.179-.052.409-.119.68-.2,2.661-.795,9.295-2.837,13.732-4.751a24.456,24.456,0,0,0-5.406,6.921c-2.177,4.28-2.88,9.3-2.818,16.2v.027l-.075-.143C409.705,225.161,407.593,221.146,406.985,215.467Zm-12.162-31.5a3.421,3.421,0,0,0,2.626,3.321v-6.642A3.419,3.419,0,0,0,394.823,183.963Zm-1.176,15.842a10.315,10.315,0,0,0,3.418,2.312l.266.974-9.547-.053,4.86,8.241-9.362,2.185,5.256,4.252c-.748.191-1.829.455-2.94.727l-.543.133c-2.349.573-4.2,1.026-5.438,1.358h-.306q-1.035-.826-2.016-1.712a.566.566,0,0,0-.127-.526.574.574,0,0,0-.618-.162q-.781-.74-1.52-1.517l0,0,.008-.006a.568.568,0,0,0-.695-.9.426.426,0,0,0-.082.08q-.755-.826-1.455-1.694a.508.508,0,0,0,.3-.092.566.566,0,0,0,.14-.777.558.558,0,0,0-.767-.167.519.519,0,0,0-.227.346,42.271,42.271,0,0,1-6.687-12.357.6.6,0,0,0-.008-.324.584.584,0,0,0-.2-.292c-.264-.815-.506-1.644-.722-2.484a.593.593,0,0,0,.045-.416.622.622,0,0,0-.234-.346c-.194-.815-.366-1.637-.511-2.471a.637.637,0,0,0,.087-.421.578.578,0,0,0-.219-.379q-.2-1.237-.316-2.5a.607.607,0,0,0,.1-.4.626.626,0,0,0-.167-.364q-.075-.93-.107-1.876c-.007-.252-.015-.5-.02-.755,0,0,0,0,0,0a.616.616,0,0,0,.062-.3.572.572,0,0,0-.067-.252,42.372,42.372,0,0,1,1.42-11.1.541.541,0,0,0,.431.6.569.569,0,0,0,.648-.453.555.555,0,0,0-.421-.66.547.547,0,0,0-.608.331q.351-1.3.785-2.571a.518.518,0,0,0,.289.192.569.569,0,0,0,.284-1.1.481.481,0,0,0-.252,0q.377-1.028.8-2.033a.238.238,0,0,0,.052.022.549.549,0,0,0,.685-.371.568.568,0,0,0-.279-.685c.306-.67.63-1.328.969-1.978a.6.6,0,0,0,.428-.344.556.556,0,0,0,0-.451v0a42.594,42.594,0,0,1,3.976-5.969.524.524,0,0,0,.229.289.55.55,0,0,0,.578-.937.473.473,0,0,0-.219-.077q.676-.811,1.393-1.592a.536.536,0,0,0,.707-.164.571.571,0,0,0,.02-.608,42.361,42.361,0,0,1,21.43-11.988,10.283,10.283,0,0,0-2.584,2.92,10.27,10.27,0,0,0-11.527,13.958,6.825,6.825,0,0,0-3.1,10.366,10.291,10.291,0,0,0,.132,7.561,10.273,10.273,0,0,0,7.862,14.088A10.294,10.294,0,0,0,393.647,199.805Zm-14.913-42.451a.544.544,0,0,0,.752-.05.524.524,0,0,0-.09-.737.532.532,0,0,0-.752.05A.515.515,0,0,0,378.734,157.354Zm.508-2.182-.82-.715a.542.542,0,0,0,.07.765A.529.529,0,0,0,379.242,155.172Zm-2.25,4.544a.52.52,0,0,0,.732-.107.537.537,0,0,0-.142-.733.524.524,0,0,0-.745.1A.535.535,0,0,0,376.993,159.716Zm.249-2.967a.532.532,0,1,0-.643.847.532.532,0,1,0,.643-.847Zm-1.111,5.277a.534.534,0,0,0-.194-.723.514.514,0,1,0-.538.874A.534.534,0,0,0,376.131,162.025Zm-.673-2.823a.545.545,0,0,0-.755.137.524.524,0,0,0,.157.742.55.55,0,0,0,.75-.139A.532.532,0,0,0,375.458,159.2Zm-.772,5.336a.524.524,0,0,0-.232-.7.536.536,0,0,0-.73.194.515.515,0,0,0,.237.708A.544.544,0,0,0,374.686,164.539Zm-1.6-2.583v0a.545.545,0,0,0,.217.735.533.533,0,0,0,.727-.194,0,0,0,0,1,0,0,.549.549,0,0,0-.209-.73A.53.53,0,0,0,373.086,161.955Zm-.511,42.209a.545.545,0,0,0,.989-.456.544.544,0,0,0-.715-.236A.515.515,0,0,0,372.576,204.165Zm.84-37.023a.542.542,0,0,0-.289-.69.517.517,0,0,0-.708.244.539.539,0,0,0,.3.7A.527.527,0,0,0,373.415,167.142Zm-6.731,22.964a.553.553,0,0,0-.6-.493.55.55,0,0,0,.11,1.094A.552.552,0,0,0,366.684,190.107Zm-.787-3.627a.534.534,0,0,0-.518.571.55.55,0,0,0,.571.528.541.541,0,0,0,.518-.568A.566.566,0,0,0,365.9,186.479Zm1.193,6.7a.538.538,0,0,0-.618-.454.554.554,0,0,0-.456.633.537.537,0,0,0,.63.454A.558.558,0,0,0,367.09,193.183Zm3.029-14.958a.542.542,0,0,0-.461-.6.52.52,0,0,0-.615.423.546.546,0,0,0,1.076.172Zm.132-3.47a.529.529,0,0,0-.653.381.542.542,0,0,0,.428.625.524.524,0,0,0,.635-.384A.537.537,0,0,0,370.251,174.756Zm-.5,6.35a.545.545,0,0,0-1.084-.1.52.52,0,0,0,.491.563A.538.538,0,0,0,369.751,181.106Zm-.189,2.9a.52.52,0,0,0-.518-.531.54.54,0,0,0-.57.5.527.527,0,0,0,.533.531A.536.536,0,0,0,369.561,184Zm.013,2.9a.548.548,0,0,0-.568-.5.518.518,0,0,0-.521.533.536.536,0,0,0,.571.5A.525.525,0,0,0,369.574,186.9Zm.2,2.89a.539.539,0,0,0-.6-.456.515.515,0,1,0,.1,1.024A.54.54,0,0,0,369.778,189.79Zm.379,2.875a.524.524,0,0,0-.613-.419.538.538,0,0,0-.461.6.52.52,0,0,0,.623.416A.544.544,0,0,0,370.157,192.665Zm.578,2.838a.544.544,0,0,0-.65-.374.513.513,0,0,0-.409.625.531.531,0,0,0,.655.371A.523.523,0,0,0,370.735,195.5Zm.767,2.8a.533.533,0,0,0-.67-.331.514.514,0,1,0,.3.982A.536.536,0,0,0,371.5,198.3Zm.491-29.145a.516.516,0,1,0,.331.672A.539.539,0,0,0,371.993,169.153Zm-1.266,3.757a.548.548,0,0,0,.675-.336.524.524,0,0,0-.366-.645.536.536,0,0,0-.678.334A.517.517,0,0,0,370.727,172.91Zm-1.044-1.876a.53.53,0,0,0,.675-.334.548.548,0,0,0-.346-.675.53.53,0,0,0-.688.329v0A.543.543,0,0,0,369.683,171.034Zm-.832,2.92a.54.54,0,0,0,.66-.376.549.549,0,0,0-.394-.655.533.533,0,1,0-.267,1.031Zm-.65,2.965a.548.548,0,0,0,.64-.416.534.534,0,0,0-.426-.625.54.54,0,0,0-.643.416A.526.526,0,0,0,368.2,176.918Zm.152,2.549a.524.524,0,0,0-.458-.593.532.532,0,1,0-.135,1.054.526.526,0,0,0,.593-.458Zm-.271,2.99a.552.552,0,0,0-.516-.566.526.526,0,0,0-.571.5.541.541,0,0,0,.516.566A.535.535,0,0,0,368.082,182.456Zm-.493,6.567a.548.548,0,0,0,.506-.566.532.532,0,0,0-.57-.493.546.546,0,0,0-.516.568A.527.527,0,0,0,367.588,189.023Zm.406-3.567a.542.542,0,0,0-.543-.531.532.532,0,1,0,0,1.064A.546.546,0,0,0,367.994,185.455Zm-.287,10.765a.561.561,0,0,0-.658-.409.536.536,0,0,0-.4.66.554.554,0,0,0,.665.409A.542.542,0,0,0,367.708,196.22Zm.077-5.234a.527.527,0,0,0-.466.6.544.544,0,0,0,.62.454.534.534,0,0,0,.459-.6A.553.553,0,0,0,367.785,190.986ZM368.9,194.4a.543.543,0,0,0-.64-.414.531.531,0,1,0,.212,1.041A.542.542,0,0,0,368.9,194.4Zm.688,2.922a.535.535,0,0,0-.658-.371.546.546,0,0,0-.394.658.524.524,0,0,0,.665.369A.551.551,0,0,0,369.591,197.319Zm-.057,4.831a.539.539,0,0,0-.7-.321.553.553,0,0,0-.321.71.539.539,0,0,0,.708.319A.556.556,0,0,0,369.534,202.149Zm.249-2.289a.524.524,0,0,0-.336.68.543.543,0,0,0,.7.321.53.53,0,0,0,.334-.678A.554.554,0,0,0,369.783,199.86Zm1.766,3.124a.544.544,0,0,0-1,.421.532.532,0,0,0,.708.282A.544.544,0,0,0,371.549,202.984Zm.207-2.232a.537.537,0,0,0-.334.678.519.519,0,0,0,.7.284.538.538,0,0,0,.321-.673A.521.521,0,0,0,371.756,200.752Zm.879-35.6a.543.543,0,0,0-.257-.717.53.53,0,0,0-.723.239.536.536,0,0,0,.257.718A.546.546,0,0,0,372.636,165.152Zm-.914-2.805a.551.551,0,0,0-.745.227.534.534,0,0,0,.222.74.562.562,0,0,0,.74-.229A.542.542,0,0,0,371.721,162.347Zm-.316,5.538a.532.532,0,0,0-.294-.7.546.546,0,0,0-.715.284.524.524,0,0,0,.3.7A.55.55,0,0,0,371.4,167.885Zm-1.1-2.738a.537.537,0,0,0-.723.279.556.556,0,0,0,.282.73.541.541,0,0,0,.712-.284A.559.559,0,0,0,370.3,165.147Zm-1.213,2.892a.55.55,0,0,0-.381,1.031.55.55,0,0,0,.381-1.031Zm-1.026,2.967a.55.55,0,0,0-.685.369.53.53,0,0,0,.359.68.561.561,0,0,0,.685-.369A.542.542,0,0,0,368.064,171.006Zm-.837,3.025a.544.544,0,0,0-.66.414.556.556,0,0,0,.421.66.538.538,0,0,0,.64-.419A.549.549,0,0,0,367.227,174.031Zm-.633,3.072a.538.538,0,0,0-.62.458.544.544,0,1,0,1.074.172A.556.556,0,0,0,366.594,177.1Zm.062,3.71a.545.545,0,1,0-1.086-.1.539.539,0,0,0,.488.6A.558.558,0,0,0,366.657,180.812Zm-.2,3.1a.541.541,0,0,0-.516-.566.557.557,0,0,0-.573.533.543.543,0,0,0,.533.568A.552.552,0,0,0,366.452,183.908Zm-1.634-5.463a.568.568,0,0,0-.144,1.126.569.569,0,0,0,.144-1.126Zm.164,3.819a.57.57,0,0,0-.516-.6.546.546,0,0,0-.573.533.546.546,0,1,0,1.089.07Zm-.638,2.633a.568.568,0,0,0,0,1.136.564.564,0,0,0,.543-.571A.557.557,0,0,0,364.345,184.9Zm.077,3.241a.564.564,0,0,0-.513.605.546.546,0,0,0,.583.531.57.57,0,0,0,.5-.605A.551.551,0,0,0,364.422,188.139Zm.279,3.229a.544.544,0,0,0-.461.635.563.563,0,0,0,.625.488.555.555,0,0,0,.456-.635A.571.571,0,0,0,364.7,191.367Zm.513,3.2a.568.568,0,0,0,.224,1.114.569.569,0,0,0-.224-1.114Zm.329,3.857a.546.546,0,0,0,.675.406.571.571,0,0,0,.376-.693.553.553,0,0,0-.668-.406A.562.562,0,0,0,365.543,198.423Zm.966,3.129a.56.56,0,0,0,.708.356.548.548,0,0,0,.321-.71.571.571,0,0,0-.7-.359A.541.541,0,0,0,366.509,201.551Zm1.34-2.7a.55.55,0,0,0,.321,1.051.55.55,0,0,0-.321-1.051Zm-.167,5.76a.549.549,0,0,0,.72.314.569.569,0,0,0-.439-1.049A.552.552,0,0,0,367.683,204.608Zm1.358,2.985a.545.545,0,1,0,.974-.486h0a.551.551,0,0,0-.733-.271A.568.568,0,0,0,369.041,207.593Zm.967-2.855a.534.534,0,0,0-.259.725.554.554,0,0,0,.733.269.546.546,0,0,0,.259-.725A.562.562,0,0,0,370.007,204.738Zm.6,5.732a.545.545,0,1,0,.939-.551.569.569,0,0,0-.762-.212A.543.543,0,0,0,370.605,210.47Zm.563-2.17a.542.542,0,0,0,.74.227.557.557,0,0,0,.219-.745.545.545,0,1,0-.959.518Zm.912-2.818a.546.546,0,0,0-.259.722.534.534,0,0,0,.73.229.54.54,0,0,0,.244-.715v0A.531.531,0,0,0,372.08,205.483Zm.68,5.565a.551.551,0,0,0,.762.172.545.545,0,0,0,.159-.752.537.537,0,0,0-.742-.182A.559.559,0,0,0,372.76,211.048Zm.528-2.145a.539.539,0,0,0,.742.182.533.533,0,0,0,.2-.73.551.551,0,0,0-.742-.184A.525.525,0,0,0,373.288,208.9Zm.852-2.8a.528.528,0,0,0-.234.713.52.52,0,0,0,.72.194.515.515,0,1,0-.486-.907Zm.4,7.564a.545.545,0,1,0,.884-.638.56.56,0,0,0-.767-.125A.538.538,0,0,0,374.541,213.671Zm.381-2.17a.527.527,0,0,0,.745.139.544.544,0,0,0,.157-.747.544.544,0,0,0-.9.608Zm.471-2.108a.545.545,0,0,0,.922-.58.523.523,0,0,0-.725-.152A.541.541,0,0,0,375.393,209.394Zm1.091,6.789a.538.538,0,0,0,.767.08.556.556,0,0,0,.072-.772.544.544,0,1,0-.839.693Zm.229-2.18a.55.55,0,0,0,.767.08.529.529,0,0,0,.095-.745l0,0a.524.524,0,0,0-.742-.092A.545.545,0,0,0,376.714,214Zm.349-2.152a.545.545,0,0,0,.882-.638.54.54,0,0,0-.747-.095A.519.519,0,0,0,377.062,211.85Zm1.517,6.719a.557.557,0,0,0,.782.017.538.538,0,0,0,.01-.765.545.545,0,0,0-.767-.032A.551.551,0,0,0,378.58,218.569Zm.1-2.207a.545.545,0,0,0,.815-.723.548.548,0,0,0-.762-.035A.528.528,0,0,0,378.682,216.362Zm.2-2.16a.523.523,0,0,0,.745.052.544.544,0,0,0,.095-.747.546.546,0,0,0-.84.695Zm1.906,4.395a.527.527,0,0,0,.757-.007.549.549,0,0,0,.01-.765.544.544,0,0,0-.767.772Zm.055-2.162a.538.538,0,0,0,.757-.007.52.52,0,0,0,.035-.74.545.545,0,0,0-.792.747Zm2.862,2.035a.534.534,0,0,0-.005-.747.54.54,0,0,0-.75.05.515.515,0,1,0,.755.7Z" transform="translate(-4.15 -15.105)" fill="#4a90e2" fill-rule="evenodd"/>
    <path id="Path_175" data-name="Path 175" d="M553.731,299.131h-3.939a.958.958,0,0,1-.959-.962V284.694a.962.962,0,0,1,1.923,0v12.514h2.975a.962.962,0,1,1,0,1.923Zm-6.871-12.122a1.445,1.445,0,1,1,0,2.89h-2.19c0,.008,0,.015,0,.022s0,.015,0,.022a1.487,1.487,0,1,1-2.974,0c0-.008,0-.015,0-.022s0-.015,0-.022h-.264a1.445,1.445,0,0,1,0-2.89Zm12.952,0H554.65a1.445,1.445,0,1,0,0,2.89h.264c0,.007,0,.015,0,.022s0,.015,0,.022a1.487,1.487,0,1,0,2.975,0c0-.008,0-.015,0-.022h0c0-.007,0-.015,0-.022h1.928a1.445,1.445,0,1,0,0-2.89ZM549.04,302.866c1.888,1.634,3.51,1.639,5.264.02a.963.963,0,1,1,1.308,1.413,5.708,5.708,0,0,1-3.872,1.729,6.1,6.1,0,0,1-3.961-1.707.963.963,0,1,1,1.261-1.455Z" transform="translate(-142.687 -124.453)" fill="#1c1c1c" fill-rule="evenodd"/>
  </g>
</svg>
