<svg xmlns="http://www.w3.org/2000/svg" width="32" height="32" viewBox="0 0 32 32">
  <g id="email-filled" transform="translate(-0.458 -0.458)">
    <rect id="Rectangle_215" data-name="Rectangle 215" width="32" height="32" transform="translate(0.458 0.458)" fill="none"/>
    <path id="Path_178" data-name="Path 178" d="M2,8.115V23.2a2.743,2.743,0,0,0,2.743,2.743H26.687A2.743,2.743,0,0,0,29.43,23.2V8.115l-9.783,6.848a6.858,6.858,0,0,1-7.865,0ZM29.376,6.2A2.744,2.744,0,0,0,26.687,4H4.743A2.744,2.744,0,0,0,2.054,6.2L12.562,13.58a5.486,5.486,0,0,0,6.307,0Z" transform="translate(0.743 1.486)" fill="#3fa2e4" fill-rule="evenodd"/>
  </g>
</svg>
