<svg id="lock-filled" xmlns="http://www.w3.org/2000/svg" width="32" height="32" viewBox="0 0 32 32">
  <rect id="Rectangle_211" data-name="Rectangle 211" width="32" height="32" fill="none"/>
  <path id="Path_170" data-name="Path 170" d="M7.667,7.667A6.667,6.667,0,0,1,21,7.667v6.667A2.667,2.667,0,0,1,23.667,17V27.667A2.667,2.667,0,0,1,21,30.333H7.667A2.667,2.667,0,0,1,5,27.667V17a2.667,2.667,0,0,1,2.667-2.667ZM14.333,3A4.667,4.667,0,0,0,9.667,7.667v6.667H19V7.667A4.667,4.667,0,0,0,14.333,3Z" transform="translate(1.667 0.333)" fill="#3fa2e4" fill-rule="evenodd"/>
</svg>
