<svg xmlns="http://www.w3.org/2000/svg" width="39" height="38" viewBox="0 0 39 38">
  <g id="download-filled" transform="translate(0.259 -0.111)">
    <rect id="Rectangle_94" data-name="Rectangle 94" width="39" height="38" transform="translate(-0.259 0.111)" fill="none"/>
    <path id="Path_107" data-name="Path 107" d="M3,3H27.4V14.383H20.879l.014,8.136h-4.88l8.133,9.76H3ZM22.52,16.013h6.507v8.133h3.253l-6.507,8.133-6.507-8.133H22.52ZM7.88,7.88H22.52v3.253H7.88Zm9.76,6.507H7.88V17.64h9.76Z" transform="translate(1.516 1.516)" fill="#fff" fill-rule="evenodd"/>
  </g>
</svg>
